%YAML 1.1
%TAG !u! tag:unity3d.com,2011:
--- !u!1045 &1
EditorBuildSettings:
  m_ObjectHideFlags: 0
  serializedVersion: 2
  m_Scenes:
  - enabled: 1
    path: Assets/Scenes/MainMenu.unity
    guid: b408c21bd38c2c24795bcde0077a8e49
  - enabled: 1
    path: Assets/Scenes/GamePlay.unity
    guid: 57913029397ef8941bc6d6e4638d1dc8
  m_configObjects: {}
