{
    "name": "PlayerAssembly",
    "rootNamespace": "",
    "references": [
        "GUID:ab9f35020357b4c46a944abfe2cd5c30",
        "GUID:0c01a537654b6fc43ae513d6e5f3bd90",
        "GUID:75469ad4d38634e559750d17036d5f7c",
        "GUID:812a992d426619542b15f27b65cc8ef6",
        "GUID:2288c8b0ef31e574191515a72d835bc5"
    ],
    "includePlatforms": [],
    "excludePlatforms": [],
    "allowUnsafeCode": false,
    "overrideReferences": false,
    "precompiledReferences": [],
    "autoReferenced": true,
    "defineConstraints": [],
    "versionDefines": [],
    "noEngineReferences": false
}